"Item Number","Iem Description","Gram Weight (g)","Calories (kcal)","Calories from Fat (kcal)","Calories from SatFat (kcal)","Protein (g)","Carbohydrates (g)","Dietary Fiber (g)","Soluble Fiber (g)","Total Sugars (g)","Monosaccharides (g)","Disaccharides (g)","Other Carbs (g)","Fat (g)","Saturated Fat (g)","Mono Fat (g)","Poly Fat (g)","Trans Fatty Acid (g)","Cholesterol (mg)","Water (g)","Vitamin A - IU (IU)","Vitamin A - RE (RE)","Vitamin A - RAE (RAE)","Carotenoid RE (RE)","Retinol RE (RE)","Beta-Carotene (mcg)","Vitamin B1 (mg)","Vitamin B2 (mg)","Vitamin B3 (mg)","Vitamin B3 - Niacin Equiv (mg)","Vitamin B6 (mg)","Vitamin B12 (mcg)","Biotin (mcg)","Vitamin C (mg)","Vitamin D - IU (IU)","Vitamin D - mcg (mcg)","Vitamin E - Alpha-Toco (mg)","Folate (mcg)","Folate, DFE (mcg)","Vitamin K (mcg)","Pantothenic Acid (mg)","Calcium (mg)","Chromium (mcg)","Copper (mg)","Fluoride (mg)","Iodine (mcg)","Iron (mg)","Magnesium (mg)","Manganese (mg)","Molybdenum (mcg)","Phosphorus (mg)","Potassium (mg)","Selenium (mcg)","Sodium (mg)","Zinc (mg)","Omega 3 Fatty Acid (g)","Omega 6 Fatty Acid (g)","Alcohol (g)","Caffeine (mg)","Choline (mg)"
309000,"Large Bagel With Cream Cheese","113.40","311.09","9.03",,"11.04","65.23","2.01",,"7.02",,,,"1.00",,,,,,,,,,,,,,,,,,,,,,,,,,,,"100.35",,,,,"4.52",,,,,,,"642.25",,,,,,
311200,"California Sub","154.05","380.00","181.50","96.00","24.67","25.67","3.00",,"3.67",,,,"20.17","10.67",,,,"78.33",,"500.00",,,,,,,,,,,,,,,,,,,,,"450.00",,,,,"1.32",,,,,"90.00",,"1333.33",,,,,,
312300,"Double Cheeseburger Platter","285.42","764.00","363.60","162.90","46.40","51.00","4.40",,"4.00",,,,"40.40","18.10",,"2.00","2.00","122.00",,"622.00",,,,,,,,,,,,,,,,,,,,,"290.00",,,,,"6.88",,,,,,,"1658.00",,,,,,
312600,"Little Italian Sub","233.04","677.84","298.13","127.47","35.79","41.12","1.24",,"5.61",,,,"33.13","14.16","0.50","0.50",,"103.03",,"225.28",,,,,,,,,,,,,"1.05",,,,,,,,"204.09",,,,,"4.41",,,,,,,"2468.50",,,,,,
313100,"Stadium Nachos & Cheese","148.83","498.06","173.39","12.97","6.96","74.04","6.00",,"1.92",,,,"19.27","1.44",,,"1.92",,,"70.87",,,,,,,,,,,,,"0.57",,,,,,,,"33.39",,,,,"3.33",,,,,,,"957.94",,,,,,
314000,"Buffalo Hot Wings","141.75","303.74","197.43","60.75","25.31","3.37",,,"3.37",,,,"21.94","6.75",,,,"185.62",,"337.49",,,,,,,,,,,,,"2.02",,,,,,,,"33.75",,,,,"1.21",,,,,,,"1029.36",,,,,,
314200,"Hot Turkey with Potatoes & Gravy","304.97","843.70","41.41","9.00","24.88","53.20","7.67","0","3.20",,,"86.72","4.60","1.00",,,,"40.03",,"200.00",,,,,,,,,,,,,"200.11",,,,,,,,"48.00",,,,,"15.55",,,,,,,"1387.58",,,,,,
314500,"Fish w Mac & Cheese","198.45","397.59","171.93","58.63","16.62","37.77","2.01",,"1.00",,,,"19.10","6.51",,,,"42.80",,,,,,,,,,,,,,,,,,,,,,,"99.91",,,,,"0.72",,,,,,,"888.35",,,,,,
315000,"Mini Sub Platter","202.96","731.30","429.78","185.86","31.85","28.25","3.00",,"5.00",,,,"47.75","20.65",,,,"121.88",,"425.00",,,,,,,,,,,,,"0.60",,,,,,,,"387.50",,,,,"1.97",,,,,"90.00",,"2241.16",,,,,,
315800,"Garden Burger","149.00","280.00","54.00","13.50","13.00","46.00","6.00",,"5.00",,,,"6.00","1.50",,"1.00",,"25.00",,,,,,,,,,,,,,,,,,,,,,,"160.00",,,,,"1.08",,,,,"100.00",,"1000.00",,,,,,
316000,"French Bread Cheese Pizza","140.33","320.00","117.00","27.00","14.00","33.00","1.00",,"4.00",,,,"13.00","3.00",,,,"20.00",,,,,,,,,,,,,,,,,,,,,,,,,,,,,,,,,,,"670.00",,,,,,
319300,"Tossed Salad with Chicken","383.49","487.53","295.35","167.25","36.92","15.18","2.76",,"6.40",,,,"32.82","18.58","3.47","0.36",,"110.62",,"4394.81",,,,,,,,,,"0.04","1.07",,"23.04","9.92",,"0.17","5.67",,"0.99",,"884.26",,"0.02",,,"1.01","15.31","0.01",,"289.17","66.05","8.73","1015.85","1.80",,,,,
319400,"Large Tossed Salad","370.10","63.86","3.60","3.60","3.65","15.29","4.25",,"8.98",,,,"0.40","0.40",,,,,,"4223.27",,,,,,,,,,,,,"37.06",,,,,,,,"60.10",,,,,"0.92",,,,,,,"35.00",,,,,,
319700,"Buffalo Chicken Salad","326.80","312.67","172.91","88.57","20.14","18.41","3.17",,"7.05",,,,"19.21","9.84","1.74","0.18",,"47.81",,"4175.93",,,,,,,,,,"0.02","0.53",,"22.64","4.96",,"0.09","2.83",,"0.50",,"457.65",,"0.01",,,"0.66","7.65","0.00",,"144.58","33.03","4.37","657.78","0.90",,,,,
319800,"BLT Salad","426.80","385.71","147.26","44.21","22.71","23.74","8.01",,"8.78",,,,"16.36","4.91","0.87","0.09",,"23.90",,"4423.12",,,,,,,,,,"0.01","0.27",,"35.34","2.48",,"0.04","1.42",,"0.25",,"342.01",,"0.00",,,"5.25","3.83","0.00",,"72.29","16.51","2.18","1136.86","0.45",,,,,
322100,"Sausage & Cheese Croissant","132.40","433.06","198.06","83.51","12.79","21.99","0.99",,"2.52",,,,"22.01","9.28",,,"0.13","59.56",,"624.54",,,,,,,,,,,,,"1.19",,,,,,,,"126.13",,,,,"1.41",,,,,,,"1067.58",,,,,,
322700,"Bacon Egg biscuit","206.31","921.00","574.02","182.07","42.00","32.43","1.00",,"4.00",,,,"63.78","20.23",,,,"420.00",,"437.00",,,,,,,,,,,,,,,,,,,,,"271.00",,,,"1.44","3.24",,,,,,,"3240.00",,,,,,
323300,"Sausage Egg & Cheese Bagel","194.77","674.07","373.56","124.01","16.80","48.10","1.00",,"7.53",,,,"41.51","13.78",,,"0.13","364.59",,"626.65",,,,,,,,,,,,,"0",,,,,,,,"186.24",,,,"1.44","3.03",,,,,,,"1368.90",,,,,,
323400,"Pancakes & Sausage","184.27","737.76","224.16","60.86","21.64","103.94","0",,"21.30",,,,"24.91","6.76",,,"0.13","64.25",,"26.65",,,,,,,,,,,,,,,,,,,,,"6.24",,,,,"0.33",,,,,,,"1863.30",,,,,,
325000,"Hard Boiled Eggs","200.00","286.00","178.92","55.80","25.20","1.56",,,"1.54",,,,"19.88","6.20",,,,"846.00",,,,,,,,,,,,,,,,,,,,,,,"106.00",,,,,"3.66",,,,,,,"280.00",,,,,,
325200,"Fresh Mozzarella Salad","511.84","595.01","233.50","76.46","30.49","25.00","8.89",,"9.01",,,,"25.94","8.50","3.47","0.36",,"34.87",,"9025.48",,,,,,,,,,"0.04","1.07",,"46.96","9.92",,"0.17","5.67",,"0.99",,"568.77",,"0.02",,,"7.37","15.31","0.01",,"289.17","66.05","8.73","1748.79","1.80",,,,,
325600,"American Cheese on White","113.70","348.89","165.64","107.43","13.95","28.00","1.00",,"1.00",,,,"18.40","11.94",,,,"59.68",,"596.83",,,,,,,,,,,,,,,,,,,,,"338.42",,,,,"1.80",,,,,,,"1274.46",,,,,,
326400,"BBQ Bacon Burger with Pepperjack Cheese","237.88","903.00","539.82","191.52","60.20","27.93","2.20",,"3.00",,,,"59.98","21.28","1.00","1.00",,"163.50",,"298.00",,,,,,"0.38","0.14","5.00",,,,"0",,,,,,,,,"113.00",,,,,"11.44",,,,,,,"2824.00",,,,,,
326500,"Ham BBQ","163.40","392.80","184.25","54.00","15.50","36.00","2.00",,"14.06",,,,"20.47","6.00",,"1.00","1.00","52.50",,,,,,,,,,,,,,,"1.13",,,,,,,,"20.00",,,,,"1.44",,,,,,,"1626.89",,,,,,
327600,"BBQ Rib","156.31","399.00","160.20","50.40","23.90","35.60","3.90",,"10.10",,,,"17.80","5.60",,,"0","59.00",,"362.00",,,,,,,,,,,,,"2.00",,,,,,,,"151.00",,,,"2.20","1.08",,,,,"495.00",,"712.00",,,,,,
327800,"BBQ Rib Deluxe","194.11","414.03","160.20","50.40","23.90","37.60","4.23",,"11.10",,,,"17.80","5.60",,,"0","59.00",,"362.00",,,,,,,,,,,,,"2.00",,,,,,,,"151.00",,,,"2.20","1.08",,,,,"495.00",,"846.96",,,,,,
328200,"BBQ Pork","135.05","322.37","109.12","31.89","15.12","35.15","2.00",,"11.11",,,,"12.12","3.54",,"1.00","1.00","40.50",,"101.25",,,,,,,,,,,,,"2.43",,,,,,,,"40.25",,,,,"2.53",,,,,,,"1070.99",,,,,,
330000,"Buffalo Chicken Strip Sandwich","191.75","458.69","165.91","27.73","21.43","51.76","4.05",,"6.11",,,,"18.43","3.08","1.00","1.00",,"0",,"1643.45",,,,,,"0.38","0.14","5.00",,,,"0",,,,,,,,,"2.00",,,,,"8.00",,,,,,,"1232.59",,,,,,
330300,"Bacon Cheeseburger on Pretzel Bun","269.25","1023.00","571.32","214.02","61.20","48.93","1.20",,"6.00",,,,"63.48","23.78",,,,"171.00",,"348.00",,,,,,,,,,,,,"0",,,,,,,,"156.00",,,,,"6.14",,,,,,,"3199.00",,,,,,
330800,"Cinnamon Raisin Bagel","113.40","331.16","9.03",,"11.04","69.24","3.01",,"14.05",,,,"1.00",,,,,,,,,,,,,,,,,,,,,,,,,,,,"100.35",,,,"37.63",,,,,,,,"582.04",,,,,,
332100,"Bologna & Cheese","132.70","380.00","211.50","90.00","13.00","32.00","1.00",,"2.00",,,,"23.50","10.00",,,,"60.00",,"200.00",,,,,,,,,,,,,"1.20",,,,,,,,"140.00",,,,,"2.16",,,,,,,"1140.00",,,,,,
333100,"Bread Sticks with Pizza Sauce","102.06","345.20","20.26","20.26","9.01","48.03","1.50",,"1.50",,,,"2.25","2.25",,,,,,,,,,,,,,,,,,,"3.60",,,,,,,,,,,,,"1.08",,,,,,,"510.29",,,,,,
334000,"Cheese Snack","170.10","608.89","449.14","287.43","40.95","4.00",,,,,,,"49.90","31.94",,,,"149.68",,"1796.83",,,,,,,,,,,,,,,,,,,,,"1298.42",,,,,,,,,,,,"1544.46",,,,,,
335200,"Egg Salad on White","267.24","553.32","315.03","71.41","28.49","29.45","1.00",,"2.44",,,,"36.28","7.93",,,,"802.81",,,,,,,,,,,,,,,,,,,,,,,"138.79",,,,,"5.21",,,,,,,"762.45",,,,,,
335500,"Cheeseburger","142.71","382.00","181.80","81.45","23.20","25.50","2.20",,"2.00",,,,"20.20","9.05",,"1.00","1.00","61.00",,"311.00",,,,,,,,,,,,,,,,,,,,,"145.00",,,,,"3.44",,,,,,,"829.00",,,,,,
335700,"Double Bacon Cheeseburger","316.42","1105.00","667.62","250.47","75.40","29.43","2.40",,"2.00",,,,"74.18","27.83","1.00","1.00",,"212.00",,"459.00",,,,,,"0.38","0.14","5.00",,,,"0",,,,,,,,,"163.00",,,,,"13.44",,,,,,,"3258.00",,,,,,
335900,"Laurel Twin Mini","102.06","364.00","180.00","72.00","16.20","28.60","1.60",,"4.20",,,,"20.00","8.00",,,,"50.00",,"0",,,,,,,,,,,,,"0",,,,,,,,"84.00",,,,,"3.00",,,,,,,"454.00",,,,,,
338600,"Chicken Parmesean","199.69","475.86","214.59","67.63","26.62","39.39","3.46",,"3.59",,,,"23.84","7.51","1.00","1.00",,"55.43",,"338.40",,,,,,"0.38","0.14","5.00",,,,"0","1.09",,,,,,,,"239.01",,,,,"10.06",,,,,,,"857.03",,,,,,
340000,"Chicken Salad on White","177.40","446.82","168.10","30.02","16.01","46.01","1.33",,"10.00",,,,"18.68","3.34",,,"0","40.02",,"0",,,,,,,,,,,,,"1.60",,,,,,,,"34.68",,,,,"12.48",,,,,,,"1000.32",,,,,,
340200,"Chicken Sandwich with Hot Sauce","150.07","382.71","154.46","31.84","20.16","36.14","3.01",,"2.00",,,,"17.16","3.54",,"1.00","1.00","40.43",,,,,,,,,,,,,,,,,,,,,,,"60.43",,,,,"3.26",,,,,,,"756.18",,,,,,
340500,"Chicken Sandwich","150.07","382.71","154.46","31.84","20.16","36.14","3.01",,"2.00",,,,"17.16","3.54",,"1.00","1.00","40.43",,,,,,,,,,,,,,,,,,,,,,,"60.43",,,,,"3.26",,,,,,,"756.18",,,,,,
340700,"Breaded Chicken Breast","163.40","330.70","72.19","13.55","24.07","40.06","2.50",,"3.00",,,,"8.02","1.51","1.00","1.00",,"45.16",,"0",,,,,,"0.38","0.14","5.00",,,,"0","1.20",,,,,,,,"22.07",,,,,"9.81",,,,,,,"622.18",,,,,,
340800,"Chicken Breast Filet Italian","160.56","296.33","79.64","13.21","26.53","23.00","2.00",,"2.98",,,"2.94","8.85","1.47","1.00","1.00",,"48.92",,"97.84",,,,,,"0.38","0.14","5.00",,,,"0","1.17",,,,,,,,"21.57",,,,,"9.06",,,,,,,"635.98",,,,,,
341000,"Mesquit Chicken Breast","135.05","230.00","40.50","9.00","24.00","25.00","2.00",,"2.00",,,,"4.50","1.00","1.00","1.00",,"70.00",,"0",,,,,,"0.38","0.14","5.00",,,,"0","1.20",,,,,,,,"22.00",,,,,"8.72",,,,,,,"640.00",,,,,,
342200,"Chipped Ham & Swiss","154.05","425.00","234.00","90.00","18.50","27.50","2.00",,"6.50",,,,"26.00","10.00",,"1.00","1.00","72.50",,"200.00",,,,,,,,,,,,,,,,,,,,,"120.00",,,,,"1.44",,,,,,,"1580.00",,,,,,
342900,"Dagwood Sandwich","355.01","748.80","363.67","111.27","24.90","63.50","2.58",,"10.15",,,,"40.41","12.36",,,,"89.86",,"708.47",,,,,,,,,,,,,"6.53",,,,,,,,"379.25",,,,,"0.68",,,,,,,"2280.74",,,,,,
343000,"Club Sandwich","265.61","845.99","460.01","164.82","63.33","31.51","1.00",,"2.33",,,,"51.11","18.31",,,,"170.41",,"261.98",,,,,,,,,,,,,,,,,,,,,"238.48",,,,,"3.72",,,,,,,"3591.66",,,,,,
343400,"Corn Dog Double","151.39","438.22","197.20","62.75","9.96","49.80",,,"15.94",,,,"21.91","6.97",,,,"29.88",,,,,,,,,,,,,,,,,,,,,,,,,,,,"2.15",,,,,,,"1135.40",,,,,,
343600,"Pork Chop & Provolone","156.26","414.88","170.94","69.73","25.99","37.74","4.00",,"2.00",,,,"18.99","7.75","1.00","1.00",,"49.98",,"225.00",,,,,,"0.38","0.14","5.00",,,,"0",,,,,,,,,"249.47",,,,,"9.80",,,,,,,"692.19",,,,,,
344000,"Cube Steak","135.05","300.00","121.50","45.00","5.00","27.00","5.00",,"3.00",,,,"13.50","5.00",,,,"35.00",,"100.00",,,,,,,,,,,,,"1.20",,,,,,,,"140.00",,,,,"2.88",,,,,"90.00",,"760.00",,,,,,
344100,"Double Cheeseburger","235.42","634.00","345.60","162.90","41.40","28.00","2.40",,"2.00",,,,"38.40","18.10","1.00","1.00",,"122.00",,"622.00",,,,,,"0.38","0.14","5.00",,,,"0",,,,,,,,,"252.00",,,,,"12.00",,,,,,,"1298.00",,,,,,
345000,"Dijon Turkey Provolone","156.93","281.67","69.00","33.75","25.67","30.08","2.00",,"5.33",,,,"7.67","3.75",,,,"48.33",,"225.00",,,,,,,,,,,,,,,,,,,,,"227.50",,,,,"2.28",,,,,,,"1219.17",,,,,,
345500,"Pepperoni Pizza Square","187.11","502.30","245.56","83.02","22.67","15.00","2.00",,,,,,"27.28","9.22",,,,"43.35",,,,,,,,,,,,,,,,,,,,,,,"352.00",,,,,"6.68",,,,,,,"1421.94",,,,,,
346500,"Fish & Cheese","154.05","422.75","154.01","49.67","18.12","46.29","3.01",,"2.00",,,,"17.11","5.52",,"1.00","1.00","45.31",,"200.00",,,,,,,,,,,,,,,,,,,,,"120.00",,,,,"1.44",,,,,,,"843.87",,,,,,
347400,"Fried Bologna on White","113.70","310.00","157.50","54.00","10.00","32.00","1.00",,"2.00",,,,"17.50","6.00",,,,"40.00",,,,,,,,,,,,,,,"1.20",,,,,,,,"40.00",,,,,"2.16",,,,,,,"790.00",,,,,,
348800,"Jumbo Fish With Tartar","151.00","400.00","153.00","22.50","19.00","23.00","2.75",,"2.75",,,"19.00","17.00","2.50","1.00","1.00",,"85.00",,"0",,,,,,"0.38","0.14","5.00",,,,"0",,,,,,,,,"2.00",,,,,"9.08",,,,,,,"450.00",,,,,,
349000,"Crab Cakes with Hot Sauce","85.05","140.08","72.04","27.02","4.00","15.01","1.00",,"2.00",,,,"8.00","3.00",,,,"10.01",,"200.11",,,,,,,,,,,,,"1.20",,,,,,,,"20.01",,,,,"0.36",,,,,,,"410.23",,,,,,
350700,"Grilled Reuben","219.01","427.86","205.56","68.98","20.12","34.27","2.89",,"6.72",,,,"22.84","7.66",,,,"53.85",,"224.98",,,,,,,,,,,,,"4.54",,,,,,,,"187.48",,,,,"1.09",,,,,,,"1448.00",,,,,,
353600,"Ham Salad on White","177.40","595.27","339.59","80.20","13.17","44.89","1.63",,"11.84",,,,"39.26","8.91",,,,"68.24",,,,,,,,,,,,,,,"0.42",,,,,,,,"8.00",,,,,"12.13",,,,,,,"1618.06",,,,,,
354100,"Hamburger","123.71","312.00","127.80","45.45","20.20","25.50","2.20",,"2.00",,,,"14.20","5.05",,"1.00","1.00","41.00",,"111.00",,,,,,,,,,,,,,,,,,,,,"45.00",,,,,"3.44",,,,,,,"479.00",,,,,,
354300,"Angus Burger","140.72","468.00","281.70","115.20","22.30","23.00","2.00",,"2.00",,,,"31.30","12.80","1.00","1.00",,"80.00",,"0",,,,,,"0.38","0.14","5.00",,,,"0",,,,,,,,,"10.00",,,,,"9.80",,,,"104.00","169.00",,"218.00",,,,,,
354400,"Angus Cheeseburger","159.72","538.00","335.70","151.20","25.30","23.00","2.00",,"2.00",,,,"37.30","16.80","1.00","1.00",,"100.00",,"200.00",,,,,,"0.38","0.14","5.00",,,,"0",,,,,,,,,"110.00",,,,,"9.80",,,,"104.00","169.00",,"568.00",,,,,,
354700,"Healthy Choice Turkey On Whole Wheat","135.67","206.67","15.00",,"19.67","29.33","2.00",,"5.33",,,,"1.67",,,,,"33.33",,,,,,,,,,,,,,,,,,,,,,,"40.00",,,,,"2.28",,,,,,,"1076.67",,,,,,
355000,"Kielbassi & Sauerkraut","236.10","540.72","289.01","99.35","19.05","43.80","2.89",,"5.89",,,,"32.11","11.04","0.50","0.50",,"70.25",,,,,,,,,,,,,,,"6.94",,,,,,,,"20.07",,,,,"3.42",,,,,,,"1643.47",,,,,,
355100,"Hot Dog","99.70","296.40","165.42","51.03","10.93","23.63","0.75",,"4.00",,,,"18.38","5.67",,"1.00",,"34.65",,,,,,,,,,,,,,,"22.68",,,,,,,,"52.60",,,,,"1.76",,,,,,"541.79","240.00",,,,,,
355200,"Stadium Dog","133.00","400.00","252.00","81.00","15.00","24.00","0.75",,"4.00",,,,"28.00","9.00",,"1.00",,"55.00",,,,,,,,,,,,,,,"36.00",,,,,,,,"60.00",,,,,"2.16",,,,,,,"1100.00",,,,,,
355400,"Hot Sausage","236.10","624.81","337.14","99.35","26.74","41.34","4.00",,"6.00",,,,"37.46","11.04","0.50","0.50",,"95.33",,"200.00",,,,,,,,,,,,,"10.41",,,,,,,,"140.00",,,,,"10.26",,,,,,,"1530.22",,,,,,
355500,"Hot Wing Burger","123.71","312.00","127.80","45.45","20.20","25.50","2.20",,"2.00",,,,"14.20","5.05","1.00","1.00",,"41.00",,"111.00",,,,,,"0.38","0.14","5.00",,,,"0",,,,,,,,,"27.00",,,,,"10.00",,,,,,,"299.00",,,,,,
356000,"Ultra Dog","113.40","270.00","126.00","36.00","12.00","26.00","2.00",,"5.00",,,,"14.00","4.00",,,,"75.00",,,,,,,,,,,,,,,"2.40",,,,,,,,"100.00",,,,,"1.80",,,,,,,"650.00",,,,,,
356400,"Jumbo Chicken Salad","177.40","426.82","186.10","30.02","18.01","44.01","2.33",,"12.00",,,,"20.68","3.34",,,"0","40.02",,"0",,,,,,,,,,,,,"1.60",,,,,,,,"66.68",,,,,"1.92",,,,,"70.00",,"830.32",,,,,,
356500,"Monster Pizza Sub","536.54","1610.36","798.84","334.84","68.47","81.79","3.00",,"7.57",,,,"88.76","37.20",,,,"218.15",,"1482.79",,,,,,,,,,,,,"15.73",,,,,,,,"606.69",,,,,"3.86",,,,,,,"5436.90",,,,,,
357100,"Grilled Cheese & Pepperoni","174.35","550.00","297.00","171.00","22.00","36.00","1.00",,"1.00",,,,"33.00","19.00",,,,"100.00",,"800.00",,,,,,,,,,,,,,,,,,,,,"420.00",,,,,"2.52",,,,,,,"2160.00",,,,,,
357700,"Meatball & Cheese Hoagie","229.01","541.44","246.35","109.87","27.92","45.74","2.91",,"8.18",,,,"27.37","12.21","0.50","0.50",,"70.03",,"451.80",,,,,,,,,,,,,"2.18",,,,,,,,"265.68",,,,,"4.63",,,,,,,"1299.48",,,,,,
357900,"Meatloaf Sandwich","163.40","268.00","145.12","49.05","5.45","30.80","3.00",,"4.00",,,,"16.12","5.45",,"1.00","1.00","57.25",,"100.00",,,,,,,,,,,,,"2.40",,,,,,,,"69.00",,,,,"3.40",,,,,,,"715.00",,,,,,
358000,"Monster Meatball Sub","425.24","988.01","440.04","193.69","50.38","89.32","6.03",,"9.43",,,,"48.89","21.52",,,,"121.72",,"890.19",,,,,,,,,,,,,"12.27",,,,,,,,"562.27",,,,,"3.14",,,,,,,"2140.52",,,,,,
358400,"Monster Italian","428.77","1322.60","636.06","272.72","60.04","73.00","3.00",,"4.00",,,,"70.67","30.30",,,,"215.43",,"500.00",,,,,,,,,,,,,"9.00",,,,,,,,"286.67",,,,,"2.26",,,,,,,"4630.65",,,,,,
358500,"Monster Ham & Swiss","311.84","659.98","205.49","97.49","41.33","74.83","3.00",,"4.33",,,,"22.83","10.83",,,,"104.16",,"549.95",,,,,,,,,,,,,"9.00",,,,,,,,"434.96",,,,,"0.48",,,,,,,"2106.66",,,,,,
358600,"Monster Grilled Cheese","146.00","460.00","225.00","144.00","18.00","36.00","1.00",,"1.00",,,,"25.00","16.00",,,,"80.00",,"800.00",,,,,,,,,,,,,,,,,,,,,"400.00",,,,,"2.16",,,,,,,"1820.00",,,,,,
359300,"Monster Cheese Steak","510.29","868.61","214.56","94.23","73.28","90.11","5.64",,"9.49",,,,"23.84","10.47",,,,"158.04",,"1060.62",,,,,,,,,,,,,"170.15",,,,,,,,"487.14",,,,,"6.60",,,,,,,"2032.86",,,,,,
359800,"Pork & Vegetable Egg Roll","170.10","360.21","162.09","36.02","14.01","36.02","4.00",,"4.00",,,,"18.01","4.00",,,,"30.02",,"1000.57",,,,,,,,,,,,,"2.40",,,,,,,,"80.05",,,,,"2.16",,,,,,,"900.51",,,,,,
360800,"Poor Boy Hoagie","146.35","571.30","326.28","134.11","21.35","25.00","0.75",,"4.50",,,,"36.25","14.90",,"1.00",,"89.38",,"200.00",,,,,,,,,,,,,"0.60",,,,,,,,"140.00",,,,,"1.97",,,,,,,"1778.66",,,,,,
361300,"Philly Cheese Steak","172.31","345.53","79.38","41.04","25.44","40.28","1.72",,"5.77",,,,"8.82","4.56","0.50","0.50",,"49.92",,"364.26",,,,,,,,,,,,,"43.95",,,,,,,,"201.72",,,,,"4.50",,,,,,,"828.28",,,,,,
362000,"Soft Pretzels with Cheese","226.80","475.32","95.84","19.46","13.44","83.21","2.00",,"2.88",,,,"10.65","2.16",,,"2.88",,,,,,,,,,,,,,,,,,,,,,,,"28.83",,,,,"3.60",,,,,,,"948.68",,,,,,
363500,"Pudding Supreme","255.15","318.93","79.73","71.76","1.77","46.07",,,"35.44",,,,"8.86","7.97",,,"2.66",,,,,,,,,,,,,,,,,,,,,,,,"35.44",,,,,,,,,,,,"336.65",,,,,,
363700,"Yougart & Fuit Parfait","226.80","305.97","51.87","11.38","8.03","56.51","2.70",,"36.32",,,,"5.76","1.26",,,,"3.75",,"749.33",,,,,,,,,,,,,"4.25",,,,,,,,"164.22",,,,,"1.98",,,,,,,"186.92",,,,,,
364700,"Ham & Swiss on pretzel","189.94","555.00","265.50","108.00","24.50","50.50","1.00",,"10.50",,,,"29.50","12.00",,,,"77.50",,"300.00",,,,,,,,,,,,,"0",,,,,,,,"270.00",,,,,"2.70",,,,,,,"1350.00",,,,,,
365000,"Turkey & Swiss on a pretzel bun","176.47","371.66","91.49","42.75","26.67","47.08","1.00",,"7.33",,,,"10.17","4.75",,,,"52.08",,"224.98",,,,,,,,,,,,,"0",,,,,,,,"207.48",,,,,"3.18",,,,,,,"1151.66",,,,,,
365500,"Rocket","125.70","325.00","165.00","70.50","14.83","26.33","3.00",,"3.83",,,,"18.33","7.83",,,,"56.67",,"200.00",,,,,,,,,,,,,"0.60",,,,,,,,"200.00",,,,,"1.38",,,,,"90.00",,"1196.67",,,,,,
365600,"Monster Roast Beef & Cheese","311.84","641.75","185.29","94.84","44.25","75.52","3.00",,"3.00",,,,"20.59","10.54",,,,"80.62",,"550.00",,,,,,,,,,,,,"9.00",,,,,,,,"435.00",,,,,"2.19",,,,,,,"1765.99",,,,,,
365800,"Salami & American Cheese","319.00","1415.21","783.12","320.45","58.41","32.00","6.00",,"4.00",,,,"87.01","35.61",,,,"217.53",,"200.00",,,,,,,,,,,,,,,,,,,,,"220.00",,,,,"5.00",,,,,"190.00",,"4304.63",,,,,,
365900,"Turkey Bacon Swiss on a Pretzel Bun","276.47","912.66","467.51","166.32","63.67","48.51","1.00",,"7.33",,,,"51.95","18.48",,,,"162.08",,"261.98",,,,,,,,,,,,,"0",,,,,,,,"218.48",,,,,"4.62",,,,,,,"3461.66",,,,,,
366500,"Salisbury Steak Sandwich","163.40","398.78","199.28","72.56","13.06","30.23","3.54",,"3.08",,,,"22.14","8.06",,"1.00","1.00","50.59",,"40.65",,,,,,,,,,,,,"1.89",,,,,,,,"79.64",,,,,"3.43",,,,,"344.45",,"656.75",,,,,,
367900,"Sloppy Joe","135.05","261.43","81.45","23.76","16.82","28.13","2.48",,"5.87",,,,"9.05","2.64",,"1.00","1.00","38.85",,"193.95",,,,,,,,,,,,,"3.90",,,,,,,,"34.97",,,,,"2.70",,,,,,,"392.64",,,,,,
370800,"Grilled Ham & Swiss","147.96","334.99","104.99","48.75","20.67","37.42","1.00",,"1.67",,,,"11.67","5.42",,,,"52.08",,"224.98",,,,,,,,,,,,,,,,,,,,,"187.48",,,,,"2.40",,,,,,,"1178.33",,,,,,
373000,"Side Tossed Salad","185.05","33.00","1.80","1.80","1.84","8.04","2.14",,"4.69",,,,"0.20","0.20",,,,,,"2333.00",,,,,,,,,,,,,"18.66",,,,,,,,"30.62",,,,,"0.44",,,,,,,"20.00",,,,,,
374900,"Tuna Salad on Wheat","161.05","340.10","126.06","18.01","14.00","41.01","7.00",,"11.00",,,,"14.01","2.00",,,,"20.01",,"100.06",,,,,,,,,,,,,"6.00",,,,,,,,"140.01",,,,,"2.52",,,,,"190.00",,"770.26",,,,,,
375600,"Jumbo Tuna Salad","161.05","400.14","162.08","24.01","14.00","44.01","3.33",,"13.34",,,,"18.01","2.67",,,,"26.68",,"133.41",,,,,,,,,,,,,"8.00",,,,,,,,"66.68",,,,,"1.92",,,,,"70.00",,"870.34",,,,,,
378000,"Turkey & Provolone","130.26","255.00","76.50","33.75","22.00","24.75","2.00",,"3.00",,,,"8.50","3.75","1.00","1.00",,"40.00",,"225.00",,,,,,"0.38","0.14","5.00",,,,"0",,,,,,,,,"189.50",,,,,"8.36",,,,,,,"792.50",,,,,,
395200,"Meatloaf & Mashed Potatoes","372.19","833.64","167.62","65.25","10.92","32.00","8.17",,"3.00",,,"86.72","18.62","7.25",,,,"66.25",,"100.00",,,,,,,,,,,,,"202.51",,,,,,,,"89.00",,,,,"11.01",,,,,,,"1461.75",,,,,,
