data1series1: 956.98
data2series1: 374.38
data3series1: 473.39
data4series1: 343.45
data5series1: 123.98
data6series1: 1900.50

data1series2: 30
data2series2: 20
data3series2: 40
data4series2: 30
data5series2: 15
data6series2: 35

data1series3: 99
data2series3: 89
data3series3: 50
data4series3: 100
data5series3: 200
data6series3: 300
