TICKET	2	filed_under	14;1	1Mar2010:70536
tkt_nbr	
taken	1Mar2010:70536
whotook_rn	25;50
src_loc_rn	56;W1
dest_loc_rn	14;700
received_date	1Mar2010
gl_date	1Mar2010
ordered_date	1Mar2010
billed_date	1Mar2010
r_rn	13;700
driver_rn	12;700
ordered_sec2	70536
shipped_sec2	70536
received_sec2	70536
lines
prod	16;1340
cases_shipped	4
casecount	1
SelLocked	0
ccost	830
prod	16;1350
cases_shipped	12
casecount	1
SelLocked	0
ccost	1100
prod	16;1365
cases_shipped	8
casecount	1
SelLocked	0
ccost	1000
prod	16;1380
cases_shipped	10
casecount	1
SelLocked	0
ccost	1650
end_lines
END
TICKET	2	filed_under	14;1	1Mar2010:70536
tkt_nbr	
taken	1Mar2010:70536
whotook_rn	25;50
src_loc_rn	56;W1
dest_loc_rn	14;701
received_date	1Mar2010
gl_date	1Mar2010
ordered_date	1Mar2010
billed_date	1Mar2010
r_rn	13;701
driver_rn	12;701
ordered_sec2	70536
shipped_sec2	70536
received_sec2	70536
lines
prod	16;1330
cases_shipped	14
casecount	1
SelLocked	0
ccost	690
prod	16;1340
cases_shipped	26
casecount	1
SelLocked	0
ccost	830
prod	16;1350
cases_shipped	42
casecount	1
SelLocked	0
ccost	1100
prod	16;1365
cases_shipped	52
casecount	1
SelLocked	0
ccost	1000
prod	16;1380
cases_shipped	26
casecount	1
SelLocked	0
ccost	1650
end_lines
END
TICKET	2	filed_under	14;1	1Mar2010:70536
tkt_nbr	
taken	1Mar2010:70536
whotook_rn	25;50
src_loc_rn	56;W1
dest_loc_rn	14;705
received_date	1Mar2010
gl_date	1Mar2010
ordered_date	1Mar2010
billed_date	1Mar2010
r_rn	13;705
driver_rn	12;705
ordered_sec2	70536
shipped_sec2	70536
received_sec2	70536
lines
prod	16;1330
cases_shipped	20
casecount	1
SelLocked	0
ccost	690
prod	16;1340
cases_shipped	30
casecount	1
SelLocked	0
ccost	830
prod	16;1350
cases_shipped	73
casecount	1
SelLocked	0
ccost	1100
prod	16;1365
cases_shipped	68
casecount	1
SelLocked	0
ccost	1000
prod	16;1380
cases_shipped	36
casecount	1
SelLocked	0
ccost	1650
end_lines
END
TICKET	2	filed_under	14;1	1Mar2010:70536
tkt_nbr	
taken	1Mar2010:70536
whotook_rn	25;50
src_loc_rn	56;W1
dest_loc_rn	14;707
received_date	1Mar2010
gl_date	1Mar2010
ordered_date	1Mar2010
billed_date	1Mar2010
r_rn	13;707
driver_rn	12;707
ordered_sec2	70536
shipped_sec2	70536
received_sec2	70536
lines
prod	16;1330
cases_shipped	12
casecount	1
SelLocked	0
ccost	690
prod	16;1340
cases_shipped	30
casecount	1
SelLocked	0
ccost	830
prod	16;1350
cases_shipped	104
casecount	1
SelLocked	0
ccost	1100
prod	16;1365
cases_shipped	24
casecount	1
SelLocked	0
ccost	1000
prod	16;1380
cases_shipped	51
casecount	1
SelLocked	0
ccost	1650
end_lines
END
TICKET	2	filed_under	14;1	1Mar2010:70536
tkt_nbr	
taken	1Mar2010:70536
whotook_rn	25;50
src_loc_rn	56;W1
dest_loc_rn	14;708
received_date	1Mar2010
gl_date	1Mar2010
ordered_date	1Mar2010
billed_date	1Mar2010
r_rn	13;708
driver_rn	12;708
ordered_sec2	70536
shipped_sec2	70536
received_sec2	70536
lines
prod	16;1330
cases_shipped	20
casecount	1
SelLocked	0
ccost	690
prod	16;1340
cases_shipped	32
casecount	1
SelLocked	0
ccost	830
prod	16;1350
cases_shipped	122
casecount	1
SelLocked	0
ccost	1100
prod	16;1365
cases_shipped	88
casecount	1
SelLocked	0
ccost	1000
prod	16;1380
cases_shipped	38
casecount	1
SelLocked	0
ccost	1650
prod	16;1385
cases_shipped	8
casecount	1
SelLocked	0
ccost	1380
end_lines
END
TICKET	2	filed_under	14;1	1Mar2010:70536
tkt_nbr	
taken	1Mar2010:70536
whotook_rn	25;50
src_loc_rn	56;W1
dest_loc_rn	14;713
received_date	1Mar2010
gl_date	1Mar2010
ordered_date	1Mar2010
billed_date	1Mar2010
r_rn	13;713
driver_rn	12;713
ordered_sec2	70536
shipped_sec2	70536
received_sec2	70536
lines
prod	16;1330
cases_shipped	15
casecount	1
SelLocked	0
ccost	690
prod	16;1340
cases_shipped	22
casecount	1
SelLocked	0
ccost	830
prod	16;1350
cases_shipped	50
casecount	1
SelLocked	0
ccost	1100
prod	16;1365
cases_shipped	15
casecount	1
SelLocked	0
ccost	1000
prod	16;1380
cases_shipped	30
casecount	1
SelLocked	0
ccost	1650
prod	16;1385
cases_shipped	20
casecount	1
SelLocked	0
ccost	1380
end_lines
END
